tb_top2.vcd
$date
	Sat May 22 16:40:33 2021
$end
$version
	Icarus Verilog
$end
$timescale
	1ps
$end
$scope module tb $end
$var wire 1 ! error $end
$var reg 1 " clk $end
$var reg 32 # instruction [31:0] $end
$var reg 32 $ pc [31:0] $end
$var reg 1 % rst_n $end
$var integer 32 & FILE [31:0] $end
$var integer 32 ' counter [31:0] $end
$var integer 32 ( i [31:0] $end
$var integer 32 ) ii [31:0] $end
$scope module SV_CPU_TOP $end
$var wire 1 " clk $end
$var wire 1 ! error $end
$var wire 1 * error1 $end
$var wire 1 + error2 $end
$var wire 1 , mem_read $end
$var wire 1 - mem_write $end
$var wire 32 . pc_rst [31:0] $end
$var wire 1 % rst_n $end
$var wire 1 / writeback_alu_mem $end
$var wire 5 0 rs2 [4:0] $end
$var wire 5 1 rs1 [4:0] $end
$var wire 32 2 reg_write_data [31:0] $end
$var wire 1 3 reg_write $end
$var wire 32 4 reg_read_data2 [31:0] $end
$var wire 32 5 reg_read_data1 [31:0] $end
$var wire 5 6 rd [4:0] $end
$var wire 1 7 pc_write_back $end
$var wire 32 8 pc_now [31:0] $end
$var wire 32 9 pc_next [31:0] $end
$var wire 32 : mem_read_data [31:0] $end
$var wire 1 ; is_store $end
$var wire 1 < is_load $end
$var wire 1 = is_jalr $end
$var wire 1 > is_jal $end
$var wire 1 ? is_bxx $end
$var wire 1 @ is_alu $end
$var wire 32 A instr [31:0] $end
$var wire 32 B imm [31:0] $end
$var wire 3 C func3 [2:0] $end
$var wire 1 D bxx_test $end
$var wire 32 E alu_out [31:0] $end
$var wire 1 F alu_op2_reg_imm $end
$var wire 1 G alu_op1_reg_pc $end
$var wire 3 H alu_op [2:0] $end
$var wire 32 I alu_in2 [31:0] $end
$var wire 32 J alu_in1 [31:0] $end
$var wire 1 K alu_arith $end
$scope module SV_DATA_MEM $end
$var wire 1 " clk $end
$var wire 1 , mem_read $end
$var wire 1 - mem_write $end
$var wire 32 L mem_write_data [31:0] $end
$var wire 32 M mem_addr [31:0] $end
$var wire 3 N func [2:0] $end
$var reg 32 O mem_read_data [31:0] $end
$var integer 32 P ii [31:0] $end
$upscope $end
$scope module SV_EXU_ALU $end
$var wire 32 Q alu_in1 [31:0] $end
$var wire 32 R alu_in2 [31:0] $end
$var wire 1 S zero $end
$var wire 1 ? is_bxx $end
$var wire 3 T alu_op [2:0] $end
$var wire 1 K alu_arith $end
$var reg 32 U alu_out [31:0] $end
$var reg 1 D test $end
$upscope $end
$scope module SV_ID_DECODER $end
$var wire 1 K alu_arith $end
$var wire 1 G alu_op1_reg_pc $end
$var wire 1 F alu_op2_reg_imm $end
$var wire 1 ! error $end
$var wire 32 V imm [31:0] $end
$var wire 1 W is_csr $end
$var wire 1 X is_env $end
$var wire 1 Y is_nop $end
$var wire 1 7 pc_write_back $end
$var wire 1 3 reg_write $end
$var wire 1 / writeback_alu_mem $end
$var wire 5 Z rs2 [4:0] $end
$var wire 5 [ rs1 [4:0] $end
$var wire 5 \ rd [4:0] $end
$var wire 7 ] opcode [6:0] $end
$var wire 1 ^ is_sys $end
$var wire 1 ; is_store $end
$var wire 1 _ is_lui $end
$var wire 1 < is_load $end
$var wire 1 = is_jalr $end
$var wire 1 > is_jal $end
$var wire 1 ? is_bxx $end
$var wire 1 ` is_auipc $end
$var wire 1 a is_alui $end
$var wire 1 @ is_alu $end
$var wire 32 b instr [31:0] $end
$var wire 3 c func3 [2:0] $end
$var wire 1 d error_x_1 $end
$var wire 1 e error_x_0 $end
$var wire 3 f alu_op [2:0] $end
$var wire 32 g Uimm [31:0] $end
$var wire 32 h Simm [31:0] $end
$var wire 32 i Jimm [31:0] $end
$var wire 32 j Iimm [31:0] $end
$var wire 32 k Bimm [31:0] $end
$upscope $end
$scope module SV_IFU_IMEM $end
$var wire 32 l instr [31:0] $end
$var wire 32 m addr [31:0] $end
$upscope $end
$scope module SV_IFU_PC $end
$var wire 1 " clk $end
$var wire 32 n pc_rst [31:0] $end
$var wire 1 % rst_n $end
$var wire 32 o pc_next [31:0] $end
$var reg 1 p isn_rst $end
$var reg 32 q pc_now [31:0] $end
$upscope $end
$scope module SV_NPC $end
$var wire 32 r imm [31:0] $end
$var wire 1 ? is_bxx $end
$var wire 1 > is_jal $end
$var wire 1 = is_jalr $end
$var wire 32 s pc_now [31:0] $end
$var wire 1 D test $end
$var wire 32 t reg_read_data1 [31:0] $end
$var wire 32 u pc_op2 [31:0] $end
$var wire 32 v pc_op1 [31:0] $end
$var wire 32 w pc_next [31:0] $end
$upscope $end
$scope module SV_REGFILE $end
$var wire 1 " clk $end
$var wire 5 x rd [4:0] $end
$var wire 1 3 reg_write $end
$var wire 32 y reg_write_data [31:0] $end
$var wire 5 z rs1 [4:0] $end
$var wire 5 { rs2 [4:0] $end
$var wire 1 % rst_n $end
$var wire 32 | reg_read_data2 [31:0] $end
$var wire 32 } reg_read_data1 [31:0] $end
$var integer 32 ~ ii [31:0] $end
$upscope $end
$upscope $end
$scope task clearIM $end
$var reg 5 !" in1 [4:0] $end
$var reg 5 "" in2 [4:0] $end
$upscope $end
$scope task encodeAdd $end
$var reg 5 #" rd [4:0] $end
$var reg 5 $" rs1 [4:0] $end
$var reg 5 %" rs2 [4:0] $end
$upscope $end
$scope task encodeAddi $end
$var reg 12 &" immediate [11:0] $end
$var reg 5 '" rd [4:0] $end
$var reg 5 (" rs1 [4:0] $end
$upscope $end
$scope task encodeAnd $end
$var reg 5 )" rd [4:0] $end
$var reg 5 *" rs1 [4:0] $end
$var reg 5 +" rs2 [4:0] $end
$upscope $end
$scope task encodeAndi $end
$var reg 12 ," immediate [11:0] $end
$var reg 5 -" rd [4:0] $end
$var reg 5 ." rs1 [4:0] $end
$upscope $end
$scope task encodeAuipc $end
$var reg 20 /" immediate [19:0] $end
$var reg 5 0" rd [4:0] $end
$upscope $end
$scope task encodeBeq $end
$var reg 13 1" immediate [12:0] $end
$var reg 5 2" rs1 [4:0] $end
$var reg 5 3" rs2 [4:0] $end
$upscope $end
$scope task encodeBge $end
$var reg 13 4" immediate [12:0] $end
$var reg 5 5" rs1 [4:0] $end
$var reg 5 6" rs2 [4:0] $end
$upscope $end
$scope task encodeBgeu $end
$var reg 13 7" immediate [12:0] $end
$var reg 5 8" rs1 [4:0] $end
$var reg 5 9" rs2 [4:0] $end
$upscope $end
$scope task encodeBlt $end
$var reg 13 :" immediate [12:0] $end
$var reg 5 ;" rs1 [4:0] $end
$var reg 5 <" rs2 [4:0] $end
$upscope $end
$scope task encodeBltu $end
$var reg 13 =" immediate [12:0] $end
$var reg 5 >" rs1 [4:0] $end
$var reg 5 ?" rs2 [4:0] $end
$upscope $end
$scope task encodeBne $end
$var reg 13 @" immediate [12:0] $end
$var reg 5 A" rs1 [4:0] $end
$var reg 5 B" rs2 [4:0] $end
$upscope $end
$scope task encodeCsr $end
$var reg 3 C" FUNCT3_OP [2:0] $end
$var reg 12 D" addr [11:0] $end
$var reg 5 E" rd [4:0] $end
$var reg 5 F" rs1 [4:0] $end
$upscope $end
$scope task encodeJal $end
$var reg 21 G" immediate [20:0] $end
$var reg 5 H" rd [4:0] $end
$upscope $end
$scope task encodeLB $end
$var reg 12 I" immediate [11:0] $end
$var reg 5 J" rd [4:0] $end
$var reg 5 K" rs1 [4:0] $end
$upscope $end
$scope task encodeLBU $end
$var reg 12 L" immediate [11:0] $end
$var reg 5 M" rd [4:0] $end
$var reg 5 N" rs1 [4:0] $end
$upscope $end
$scope task encodeLH $end
$var reg 12 O" immediate [11:0] $end
$var reg 5 P" rd [4:0] $end
$var reg 5 Q" rs1 [4:0] $end
$upscope $end
$scope task encodeLHU $end
$var reg 12 R" immediate [11:0] $end
$var reg 5 S" rd [4:0] $end
$var reg 5 T" rs1 [4:0] $end
$upscope $end
$scope task encodeLW $end
$var reg 12 U" immediate [11:0] $end
$var reg 5 V" rd [4:0] $end
$var reg 5 W" rs1 [4:0] $end
$upscope $end
$scope task encodeLui $end
$var reg 20 X" immediate [19:0] $end
$var reg 5 Y" rd [4:0] $end
$upscope $end
$scope task encodeSB $end
$var reg 12 Z" offset [11:0] $end
$var reg 5 [" rs1 [4:0] $end
$var reg 5 \" rs2 [4:0] $end
$upscope $end
$scope task encodeSH $end
$var reg 12 ]" offset [11:0] $end
$var reg 5 ^" rs1 [4:0] $end
$var reg 5 _" rs2 [4:0] $end
$upscope $end
$scope task encodeSW $end
$var reg 12 `" offset [11:0] $end
$var reg 5 a" rs1 [4:0] $end
$var reg 5 b" rs2 [4:0] $end
$upscope $end
$scope task encodeSll $end
$var reg 5 c" immediate [4:0] $end
$var reg 5 d" rd [4:0] $end
$var reg 5 e" rs1 [4:0] $end
$upscope $end
$scope task encodeSlli $end
$var reg 5 f" immediate [4:0] $end
$var reg 5 g" rd [4:0] $end
$var reg 5 h" rs1 [4:0] $end
$upscope $end
$scope task encodeSlt $end
$var reg 12 i" immediate [11:0] $end
$var reg 5 j" rd [4:0] $end
$var reg 5 k" rs1 [4:0] $end
$upscope $end
$scope task encodeSlti $end
$var reg 12 l" immediate [11:0] $end
$var reg 5 m" rd [4:0] $end
$var reg 5 n" rs1 [4:0] $end
$upscope $end
$scope task encodeSltiu $end
$var reg 12 o" immediate [11:0] $end
$var reg 5 p" rd [4:0] $end
$var reg 5 q" rs1 [4:0] $end
$upscope $end
$scope task encodeSltu $end
$var reg 12 r" immediate [11:0] $end
$var reg 5 s" rd [4:0] $end
$var reg 5 t" rs1 [4:0] $end
$upscope $end
$scope task test_add $end
$upscope $end
$scope task test_and $end
$upscope $end
$scope task test_andi $end
$upscope $end
$scope task test_auipc $end
$upscope $end
$scope task test_beq $end
$upscope $end
$scope task test_csr $end
$upscope $end
$scope task test_jal $end
$upscope $end
$scope task test_load $end
$upscope $end
$scope task test_lui $end
$upscope $end
$scope task test_slli $end
$upscope $end
$scope task test_slti $end
$upscope $end
$scope task test_sltiu $end
$upscope $end
$scope task test_store $end
$upscope $end
$upscope $end
$enddefinitions $end
#0
$dumpvars
bx t"
bx s"
bx r"
bx q"
bx p"
bx o"
bx n"
bx m"
bx l"
bx k"
bx j"
bx i"
bx h"
bx g"
bx f"
bx e"
bx d"
bx c"
bx b"
bx a"
bx `"
bx _"
bx ^"
bx ]"
bx \"
bx ["
bx Z"
bx Y"
bx X"
bx W"
bx V"
bx U"
bx T"
bx S"
bx R"
bx Q"
bx P"
bx O"
bx N"
bx M"
bx L"
bx K"
bx J"
bx I"
bx H"
bx G"
bx F"
bx E"
bx D"
bx C"
bx B"
bx A"
bx @"
bx ?"
bx >"
bx ="
bx <"
bx ;"
bx :"
bx 9"
bx 8"
bx 7"
bx 6"
bx 5"
bx 4"
bx 3"
bx 2"
bx 1"
bx 0"
bx /"
bx ."
bx -"
bx ,"
bx +"
bx *"
bx )"
b0 ("
b100 '"
b10 &"
b100 %"
b11 $"
b101 #"
b11111 ""
b11 !"
b100000 ~
bx }
bx |
bx {
bx z
bx y
bx x
bx w
bx v
bx u
bx t
bx s
bx r
bx q
0p
bx o
b0 n
bx m
bx l
bx0 k
bx j
bx0 i
bx h
bx000000000000 g
bx f
xe
xd
bx c
bx b
xa
x`
x_
x^
bx ]
bx \
bx [
bx Z
xY
xX
xW
bx V
bx U
bx T
xS
bx R
bx Q
b100000000 P
bx O
bx N
bx M
bx L
xK
bx J
bx I
bx H
xG
xF
bx E
xD
bx C
bx B
bx A
x@
x?
x>
x=
x<
x;
bx :
bx 9
bx 8
x7
bx 6
bx 5
bx 4
x3
bx 2
bx 1
bx 0
x/
b0 .
x-
x,
z+
z*
b100000 )
b0 (
b11111111111111111111111111111111 '
b10000000000000000000000000000011 &
0%
b1100 $
b10000011000001010110011 #
1"
x!
$end
#50
b100000 (
b0 '
0"
#100
b1 '
1"
#105
1%
#150
b100000 (
b10 '
0"
#200
b101 2
b101 y
0S
b101 E
b101 M
b101 U
b101 I
b101 R
13
b101 B
b101 V
b101 r
1F
b100 9
b100 o
b100 w
b100 u
b0 J
b0 Q
0Y
0G
b0 5
b0 t
b0 }
b0 4
b0 L
b0 |
b0 H
b0 T
b0 f
0K
b0 v
07
b0 1
b0 [
b0 z
0W
0X
b11 6
b11 \
b11 x
b101 0
b101 Z
b101 {
b0 C
b0 N
b0 c
b100000000100 i
b10100000000000000000000 g
b100000000010 k
b11 h
b101 j
0@
1a
0/
0,
0<
0-
0;
0?
0>
0=
0_
0`
0^
b10011 ]
b10100000000000110010011 A
b10100000000000110010011 b
b10100000000000110010011 l
1p
b0 8
b0 m
b0 q
b0 s
b11 '
1"
#250
b100000 (
b100 '
0"
#300
b10 2
b10 y
b10 E
b10 M
b10 U
b10 I
b10 R
b10 B
b10 V
b10 r
b100 6
b100 \
b100 x
b10 0
b10 Z
b10 {
b10 i
b1000000000000000000000 g
b100 k
b100 h
b10 j
b1000 9
b1000 o
b1000 w
b100 v
b1000000000001000010011 A
b1000000000001000010011 b
b1000000000001000010011 l
b100 8
b100 m
b100 q
b100 s
b101 '
1"
#350
b100000 (
b110 '
0"
#400
b111 2
b111 y
b10 4
b10 L
b10 |
b111 E
b111 M
b111 U
b10 I
b10 R
b0 B
b0 V
b0 r
0F
b101 J
b101 Q
b101 5
b101 t
b101 }
b11 1
b11 [
b11 z
b101 6
b101 \
b101 x
b100 0
b100 Z
b100 {
b11000000000000100 i
b10000011000000000000000 g
b100000000100 k
b101 h
b100 j
1@
0a
b110011 ]
b1100 9
b1100 o
b1100 w
b1000 v
b10000011000001010110011 A
b10000011000001010110011 b
b10000011000001010110011 l
b1000 8
b1000 m
b1000 q
b1000 s
b111 '
1"
#450
b100000 (
b1000 '
0"
#500
xS
b0x E
b0x M
b0x U
0D
x3
xY
bx B
bx V
bx r
bx u
bx I
bx R
bx 5
bx t
bx }
bx J
bx Q
bx 4
bx L
bx |
bx H
bx T
bx f
xK
bx 2
bx y
x7
bx 1
bx [
bx z
xF
xG
xW
xX
bx 6
bx \
bx x
bx 0
bx Z
bx {
bx C
bx N
bx c
bx0 i
bx000000000000 g
bx0 k
bx h
bx j
x@
xa
x/
x,
x<
x-
x;
x?
x>
x=
x_
x`
x^
bx ]
bx 9
bx o
bx w
bx v
bx A
bx b
bx l
b1100 8
b1100 m
b1100 q
b1100 s
b1001 '
1"
#550
b100000 (
b1010 '
0"
#600
bx 8
bx m
bx q
bx s
b1011 '
1"
#650
b100000 (
b1100 '
0"
#700
b1101 '
1"
#710
b101 )"
b100 +"
b11 *"
b10000011111001010110011 #
b11111111 &"
b100 '"
b1100 $
b100000 )
#750
b100000 (
b1110 '
0"
#800
b1111 '
1"
#815
0p
b100000 ~
0%
#850
b100000 (
b10000 '
0"
#900
b10001 '
1"
#920
1%
#950
b100000 (
b10010 '
0"
#1000
0S
xD
b11111111111111111111111111111111 E
b11111111111111111111111111111111 M
b11111111111111111111111111111111 U
b11111111111111111111111111111111 I
b11111111111111111111111111111111 R
13
b11111111111111111111111111111111 B
b11111111111111111111111111111111 V
b11111111111111111111111111111111 r
1F
b100 9
b100 o
b100 w
b100 u
b0 J
b0 Q
0Y
0G
b0 5
b0 t
b0 }
b0 4
b0 L
b0 |
b0 H
b0 T
b0 f
0K
b11111111111111111111111111111111 2
b11111111111111111111111111111111 y
b0 v
07
b0 1
b0 [
b0 z
0W
0X
b11 6
b11 \
b11 x
b11111 0
b11111 Z
b11111 {
b0 C
b0 N
b0 c
b11111111111100000000111111111110 i
b11111111111100000000000000000000 g
b11111111111111111111111111100010 k
b11111111111111111111111111100011 h
b11111111111111111111111111111111 j
0@
1a
0/
0,
0<
0-
0;
0?
0>
0=
0_
0`
0^
b10011 ]
b11111111111100000000000110010011 A
b11111111111100000000000110010011 b
b11111111111100000000000110010011 l
1p
b0 8
b0 m
b0 q
b0 s
b10011 '
1"
#1050
b100000 (
b10100 '
0"
#1100
b11111111 2
b11111111 y
b11111111 E
b11111111 M
b11111111 U
b11111111 I
b11111111 R
b11111111 B
b11111111 V
b11111111 r
b100 6
b100 \
b100 x
b100011111110 i
b1111111100000000000000000000 g
b11100100 k
b11100100 h
b11111111 j
b1000 9
b1000 o
b1000 w
b100 v
b1111111100000000001000010011 A
b1111111100000000001000010011 b
b1111111100000000001000010011 l
b100 8
b100 m
b100 q
b100 s
b10101 '
1"
#1150
b100000 (
b10110 '
0"
#1200
b11111111 2
b11111111 y
b11111111 4
b11111111 L
b11111111 |
0S
b11111111 E
b11111111 M
b11111111 U
b11111111 I
b11111111 R
b0 B
b0 V
b0 r
0F
b11111111111111111111111111111111 J
b11111111111111111111111111111111 Q
b11111111111111111111111111111111 5
b11111111111111111111111111111111 t
b11111111111111111111111111111111 }
b11 1
b11 [
b11 z
b111 H
b111 T
b111 f
b101 6
b101 \
b101 x
b100 0
b100 Z
b100 {
b111 C
b111 N
b111 c
b11111000000000100 i
b10000011111000000000000 g
b100000000100 k
b101 h
b100 j
1@
0a
b110011 ]
b1100 9
b1100 o
b1100 w
b1000 v
b10000011111001010110011 A
b10000011111001010110011 b
b10000011111001010110011 l
b1000 8
b1000 m
b1000 q
b1000 s
b10111 '
1"
#1250
b100000 (
b11000 '
0"
#1300
xS
b0x E
b0x M
b0x U
0D
x3
xX
xY
bx B
bx V
bx r
bx u
bx I
bx R
bx 5
bx t
bx }
bx J
bx Q
bx 4
bx L
bx |
bx H
bx T
bx f
xK
bx 2
bx y
x7
bx 1
bx [
bx z
xF
xG
xW
bx 6
bx \
bx x
bx 0
bx Z
bx {
bx C
bx N
bx c
bx0 i
bx000000000000 g
bx0 k
bx h
bx j
x@
xa
x/
x,
x<
x-
x;
x?
x>
x=
x_
x`
x^
bx ]
bx 9
bx o
bx w
bx v
bx A
bx b
bx l
b1100 8
b1100 m
b1100 q
b1100 s
b11001 '
1"
#1350
b100000 (
b11010 '
0"
#1400
bx 8
bx m
bx q
bx s
b11011 '
1"
#1420
b111100001111 ,"
b101 -"
b11 ."
b11110000111100011111001010010011 #
b10001000100 &"
b11 '"
b1000 $
b100000 )
b10 !"
#1450
b100000 (
b11100 '
0"
#1500
b11101 '
1"
#1525
0p
b100000 ~
0%
#1550
b100000 (
b11110 '
0"
#1600
b11111 '
1"
#1630
1%
#1650
b100000 (
b100000 '
0"
#1700
0S
xD
b10001000100 E
b10001000100 M
b10001000100 U
b10001000100 I
b10001000100 R
13
b10001000100 B
b10001000100 V
b10001000100 r
1F
b100 9
b100 o
b100 w
b100 u
b0 J
b0 Q
0Y
0G
b0 5
b0 t
b0 }
b0 4
b0 L
b0 |
b0 H
b0 T
b0 f
0K
b10001000100 2
b10001000100 y
b0 v
07
b0 1
b0 [
b0 z
0W
0X
b11 6
b11 \
b11 x
b100 0
b100 Z
b100 {
b0 C
b0 N
b0 c
b10001000100 i
b1000100010000000000000000000000 g
b110001000010 k
b10001000011 h
b10001000100 j
0@
1a
0/
0,
0<
0-
0;
0?
0>
0=
0_
0`
0^
b10011 ]
b1000100010000000000000110010011 A
b1000100010000000000000110010011 b
b1000100010000000000000110010011 l
1p
b0 8
b0 m
b0 q
b0 s
b100001 '
1"
#1750
b100000 (
b100010 '
0"
#1800
b10001000100 J
b10001000100 Q
b10000000100 2
b10000000100 y
b10001000100 5
b10001000100 t
b10001000100 }
0S
b10000000100 E
b10000000100 M
b10000000100 U
b11111111111111111111111100001111 I
b11111111111111111111111100001111 R
b11111111111111111111111100001111 B
b11111111111111111111111100001111 V
b11111111111111111111111100001111 r
b11 1
b11 [
b11 z
b111 H
b111 T
b111 f
b101 6
b101 \
b101 x
b1111 0
b1111 Z
b1111 {
b111 C
b111 N
b111 c
b11111111111100011111111100001110 i
b11110000111100011111000000000000 g
b11111111111111111111111100000100 k
b11111111111111111111111100000101 h
b11111111111111111111111100001111 j
b1000 9
b1000 o
b1000 w
b100 v
b11110000111100011111001010010011 A
b11110000111100011111001010010011 b
b11110000111100011111001010010011 l
b100 8
b100 m
b100 q
b100 s
b100011 '
1"
#1850
b100000 (
b100100 '
0"
#1900
xS
b0x E
b0x M
b0x U
0D
x3
xX
xF
xY
bx B
bx V
bx r
bx u
bx I
bx R
bx 5
bx t
bx }
bx J
bx Q
bx 4
bx L
bx |
bx H
bx T
bx f
xK
bx 2
bx y
x7
bx 1
bx [
bx z
xG
xW
bx 6
bx \
bx x
bx 0
bx Z
bx {
bx C
bx N
bx c
bx0 i
bx000000000000 g
bx0 k
bx h
bx j
x@
xa
x/
x,
x<
x-
x;
x?
x>
x=
x_
x`
x^
bx ]
bx 9
bx o
bx w
bx v
bx A
bx b
bx l
b1000 8
b1000 m
b1000 q
b1000 s
b100101 '
1"
#1950
b100000 (
b100110 '
0"
#2000
bx 8
bx m
bx q
bx s
b100111 '
1"
#2030
b11110000 1"
b100 3"
b11 2"
b100 '"
b1110010000011000100001100011 #
b111111111111 &"
b1100 $
#2050
b100000 (
b101000 '
0"
#2100
b101001 '
1"
#2135
0p
b100000 ~
0%
#2150
b100000 (
b101010 '
0"
#2200
b101011 '
1"
#2240
1%
#2250
b100000 (
b101100 '
0"
#2300
0S
xD
b11111111111111111111111111111111 E
b11111111111111111111111111111111 M
b11111111111111111111111111111111 U
b11111111111111111111111111111111 I
b11111111111111111111111111111111 R
13
b11111111111111111111111111111111 B
b11111111111111111111111111111111 V
b11111111111111111111111111111111 r
1F
b100 9
b100 o
b100 w
b100 u
b0 J
b0 Q
0Y
0G
b0 5
b0 t
b0 }
b0 4
b0 L
b0 |
b0 H
b0 T
b0 f
0K
b11111111111111111111111111111111 2
b11111111111111111111111111111111 y
b0 v
07
b0 1
b0 [
b0 z
0W
0X
b11 6
b11 \
b11 x
b11111 0
b11111 Z
b11111 {
b0 C
b0 N
b0 c
b11111111111100000000111111111110 i
b11111111111100000000000000000000 g
b11111111111111111111111111100010 k
b11111111111111111111111111100011 h
b11111111111111111111111111111111 j
0@
1a
0/
0,
0<
0-
0;
0?
0>
0=
0_
0`
0^
b10011 ]
b11111111111100000000000110010011 A
b11111111111100000000000110010011 b
b11111111111100000000000110010011 l
1p
b0 8
b0 m
b0 q
b0 s
b101101 '
1"
#2350
b100000 (
b101110 '
0"
#2400
b100 6
b100 \
b100 x
b11111111111111111111011111100100 k
b11111111111111111111111111100100 h
b1000 9
b1000 o
b1000 w
b100 v
b11111111111100000000001000010011 A
b11111111111100000000001000010011 b
b11111111111100000000001000010011 l
b100 8
b100 m
b100 q
b100 s
b101111 '
1"
#2450
b100000 (
b110000 '
0"
#2500
b11111111111111111111111111111111 4
b11111111111111111111111111111111 L
b11111111111111111111111111111111 |
1D
03
b11111111111111111111111111111111 I
b11111111111111111111111111111111 R
b11110000 B
b11110000 V
b11110000 r
0F
b11110000 u
b11111111111111111111111111111111 J
b11111111111111111111111111111111 Q
b11111111111111111111111111111111 5
b11111111111111111111111111111111 t
b11111111111111111111111111111111 }
b11 1
b11 [
b11 z
b10000 6
b10000 \
b10000 x
b100 0
b100 Z
b100 {
b11000000011100100 i
b1110010000011000000000000000 g
b11110000 k
b11110000 h
b11100100 j
0a
1?
b1100011 ]
b11111000 9
b11111000 o
b11111000 w
b1000 v
b1110010000011000100001100011 A
b1110010000011000100001100011 b
b1110010000011000100001100011 l
b1000 8
b1000 m
b1000 q
b1000 s
b110001 '
1"
#2550
b100000 (
b110010 '
0"
#2600
0D
xS
b0x E
b0x M
b0x U
bx u
xY
bx B
bx V
bx r
bx I
bx R
bx 5
bx t
bx }
bx J
bx Q
bx 4
bx L
bx |
bx H
bx T
bx f
xK
bx 2
bx y
x7
bx 1
bx [
bx z
x3
xF
xG
xW
xX
bx 6
bx \
bx x
bx 0
bx Z
bx {
bx C
bx N
bx c
bx0 i
bx000000000000 g
bx0 k
bx h
bx j
x@
xa
x/
x,
x<
x-
x;
x?
x>
x=
x_
x`
x^
bx ]
bx 9
bx o
bx w
bx v
bx A
bx b
bx l
b11111000 8
b11111000 m
b11111000 q
b11111000 s
b110011 '
1"
#2640
b111111111111111111000 G"
b101 H"
b11111111100111111111001011101111 #
b100 '"
b1100 $
b100000 )
b11 !"
#2650
b100000 (
b110100 '
0"
#2700
bx 8
bx m
bx q
bx s
b110101 '
1"
#2745
0p
b100000 ~
0%
#2750
b100000 (
b110110 '
0"
#2800
b110111 '
1"
#2850
b100000 (
b111000 '
0"
1%
#2900
0S
xD
b11111111111111111111111111111111 E
b11111111111111111111111111111111 M
b11111111111111111111111111111111 U
b11111111111111111111111111111111 I
b11111111111111111111111111111111 R
13
b11111111111111111111111111111111 B
b11111111111111111111111111111111 V
b11111111111111111111111111111111 r
1F
b100 9
b100 o
b100 w
b100 u
b0 J
b0 Q
0Y
0G
b0 5
b0 t
b0 }
b0 4
b0 L
b0 |
b0 H
b0 T
b0 f
0K
b11111111111111111111111111111111 2
b11111111111111111111111111111111 y
b0 v
07
b0 1
b0 [
b0 z
0W
0X
b11 6
b11 \
b11 x
b11111 0
b11111 Z
b11111 {
b0 C
b0 N
b0 c
b11111111111100000000111111111110 i
b11111111111100000000000000000000 g
b11111111111111111111111111100010 k
b11111111111111111111111111100011 h
b11111111111111111111111111111111 j
0@
1a
0/
0,
0<
0-
0;
0?
0>
0=
0_
0`
0^
b10011 ]
b11111111111100000000000110010011 A
b11111111111100000000000110010011 b
b11111111111100000000000110010011 l
1p
b0 8
b0 m
b0 q
b0 s
b111001 '
1"
#2950
b100000 (
b111010 '
0"
#3000
b100 6
b100 \
b100 x
b11111111111111111111011111100100 k
b11111111111111111111111111100100 h
b1000 9
b1000 o
b1000 w
b100 v
b11111111111100000000001000010011 A
b11111111111100000000001000010011 b
b11111111111100000000001000010011 l
b100 8
b100 m
b100 q
b100 s
b111011 '
1"
#3050
b100000 (
b111100 '
0"
#3100
b1100 2
b1100 y
0S
b1100 E
b1100 M
b1100 U
b11111111111111111111111111111000 B
b11111111111111111111111111111000 V
b11111111111111111111111111111000 r
0F
b11111111111111111111111111111000 u
b1000 J
b1000 Q
1G
b100 I
b100 R
b11111 1
b11111 [
b11111 z
b0 H
b0 T
b0 f
17
b101 6
b101 \
b101 x
b11001 0
b11001 Z
b11001 {
b111 C
b111 N
b111 c
b11111111111111111111111111111000 i
b11111111100111111111000000000000 g
b11111111111111111111111111100100 k
b11111111111111111111111111100101 h
b11111111111111111111111111111001 j
0a
1>
b1101111 ]
b0 9
b0 o
b0 w
b1000 v
b11111111100111111111001011101111 A
b11111111100111111111001011101111 b
b11111111100111111111001011101111 l
b1000 8
b1000 m
b1000 q
b1000 s
b111101 '
1"
#3150
b100000 (
b111110 '
0"
#3200
b11111111111111111111111111111111 2
b11111111111111111111111111111111 y
0S
b11111111111111111111111111111111 E
b11111111111111111111111111111111 M
b11111111111111111111111111111111 U
1F
13
b100 u
b11111111111111111111111111111111 B
b11111111111111111111111111111111 V
b11111111111111111111111111111111 r
0G
b11111111111111111111111111111111 I
b11111111111111111111111111111111 R
b0 1
b0 [
b0 z
07
b11 6
b11 \
b11 x
b11111 0
b11111 Z
b11111 {
b0 C
b0 N
b0 c
b11111111111100000000111111111110 i
b11111111111100000000000000000000 g
b11111111111111111111111111100010 k
b11111111111111111111111111100011 h
b11111111111111111111111111111111 j
1a
0>
b10011 ]
b100 9
b100 o
b100 w
b0 v
b11111111111100000000000110010011 A
b11111111111100000000000110010011 b
b11111111111100000000000110010011 l
b0 J
b0 Q
b0 8
b0 m
b0 q
b0 s
b111111 '
1"
#3250
b1111 :
b1111 O
b100000 (
b100 E
b100 M
b100 U
b1000000 '
0"
b100 I
b100 R
b100 B
b100 V
b100 r
b11111111111111111111111111111111 4
b11111111111111111111111111111111 L
b11111111111111111111111111111111 |
b1111 2
b1111 y
b100 0
b100 Z
b100 {
b100 i
b10000000000000000000000 g
b100000000010 k
b11 h
b100 j
0a
1/
1,
1<
b11 ]
b100 L"
b111 M"
b0 N"
b100 R"
b110 S"
b0 T"
b100 U"
b101 V"
b0 W"
b100 O"
b100 P"
b0 Q"
b10000000000000110000011 A
b10000000000000110000011 b
b10000000000000110000011 l
b10000000100001110000011 #
b100 I"
b11 J"
b0 K"
b10100 $
b100000 )
b101 !"
#3300
b100 6
b100 \
b100 x
b1 C
b1 N
b1 c
b1000000000100 i
b10000000001000000000000 g
b100 k
b100 h
b1000 9
b1000 o
b1000 w
b100 v
b10000000001001000000011 A
b10000000001001000000011 b
b10000000001001000000011 l
b100 8
b100 m
b100 q
b100 s
b1000001 '
1"
#3350
b11100 2
b11100 y
b11100 :
b11100 O
b100000 (
b1000010 '
0"
#3355
b0 4
b0 L
b0 |
0p
b100000 ~
0%
#3400
b11100 4
b11100 L
b11100 |
b1000011 '
1"
#3450
b100000 (
b1000100 '
0"
#3460
1%
#3500
b11 6
b11 \
b11 x
b0 C
b0 N
b0 c
b100 i
b10000000000000000000000 g
b100000000010 k
b11 h
b100 9
b100 o
b100 w
b0 v
b10000000000000110000011 A
b10000000000000110000011 b
b10000000000000110000011 l
1p
b0 8
b0 m
b0 q
b0 s
b1000101 '
1"
#3550
b1111 2
b1111 y
b1111 :
b1111 O
b100000 (
b1000110 '
0"
#3600
b100 6
b100 \
b100 x
b1 C
b1 N
b1 c
b1000000000100 i
b10000000001000000000000 g
b100 k
b100 h
b1000 9
b1000 o
b1000 w
b100 v
b10000000001001000000011 A
b10000000001001000000011 b
b10000000001001000000011 l
b100 8
b100 m
b100 q
b100 s
b1000111 '
1"
#3650
b11100 2
b11100 y
b11100 :
b11100 O
b100000 (
b1001000 '
0"
#3700
b101 6
b101 \
b101 x
b10 C
b10 N
b10 c
b10000000000100 i
b10000000010000000000000 g
b100000000100 k
b101 h
b1100 9
b1100 o
b1100 w
b1000 v
b10000000010001010000011 A
b10000000010001010000011 b
b10000000010001010000011 l
b1000 8
b1000 m
b1000 q
b1000 s
b1001001 '
1"
